{
	"$schema": "https://schema.management.azure.com/schemas/2018-05-01/subscriptionDeploymentTemplate.json#",
	"contentVersion": "1.0.0.0",
	"parameters": {
        "subscriptionId": {
            "type": "string"
        },
        "resourceGroupName": {
            "type": "string"
        },
 		"eventHubNamespaceName": {
            "type": "string"
        },
		"eventHubName": {
        	"type": "string"
		}
	},
	"resources": [
		{
			"type": "Microsoft.Insights/diagnosticSettings",
			"apiVersion": "2017-05-01-preview",
			"name": "OWORX-MONITORING",
			"properties": {
				"eventHubAuthorizationRuleId": "[concat('/subscriptions/', parameters('subscriptionId'),'/resourcegroups/', parameters('resourceGroupName'), '/providers/Microsoft.EventHub/namespaces/', parameters('eventHubNamespaceName'), '/authorizationrules/RootManageSharedAccessKey')]",
				"eventHubName": "[parameters('eventHubName')]",
				"logs": [
					{
						"category": "Administrative",
						"enabled": true
					},
					{
						"category": "Security",
						"enabled": false
					},
					{
						"category": "ServiceHealth",
						"enabled": true
					},
					{
						"category": "Alert",
						"enabled": false
					},
					{
						"category": "Recommendation",
						"enabled": false
					},
					{
						"category": "Policy",
						"enabled": false
					},
					{
						"category": "Autoscale",
						"enabled": false
					},
					{
						"category": "ResourceHealth",
						"enabled": false
					}
				]
			}
		}
	]
}